{
    "microservices": [],
    "microfrontends": [],
    "svc": [],
    "name": "pom-navigation",
    "version": "0.0.1",
    "description": "Bundle che installa il widget della navigazione ed un'ulteriore set di 3 widget pre configurati dinamici.",
    "type": "bundle"
}
