{
    "microservices": [],
    "microfrontends": [],
    "svc": [],
    "name": "pom-gallerie",
    "version": "0.0.1",
    "description": "Questo bundle installa un widget per una normale galleria immagini ed un'altro per la galleria proporzionale.",
    "type": "bundle"
}
