{
    "microservices": [],
    "microfrontends": [],
    "svc": [],
    "name": "pom-cookies-bar",
    "version": "0.0.1",
    "description": "Bundle con 2 cookie widget che danno la possibilità di utilizzare la cookie bar all'interno delle pagine",
    "type": "bundle"
}
